{
    "resourceType": "PlanDefinition",
    "id": "mgfoms-c50-protocol-standard-v1",
    "title": "Протокол ведения РМЖ",
    "status": "active",
    "useContext": [
        {
            "code": {
                "code": "focus",
                "system": "http://terminology.hl7.org/CodeSystem/usage-context-type"
            },
            "valueCodeableConcept": {
                "coding": [
                    {
                        "code": "C50",
                        "system": "urn:1.2.643.5.1.13.13.11.1005",
                        "display": "Злокачественное новообразование молочной железы"
                    }
                ]
            }
        }
    ],
    "action": [
        {
            "reason": [
                {
                    "coding": [
                        {
                            "code": "1",
                            "system": "http://miramedix.ru/fhir/CodeSystem/onlinedoc-activity-reason",
                            "display": "Отягощенный наследственный анамнез (наличие РМЖ у 2 и более близких родственников)"
                        }
                    ]
                },
                {
                    "coding": [
                        {
                            "code": "2",
                            "system": "http://miramedix.ru/fhir/CodeSystem/onlinedoc-activity-reason",
                            "display": "Возраст моложе 50 лет"
                        }
                    ]
                },
                {
                    "coding": [
                        {
                            "code": "3",
                            "system": "http://miramedix.ru/fhir/CodeSystem/onlinedoc-activity-reason",
                            "display": "Первично-множественный РМЖ"
                        }
                    ]
                },
                {
                    "coding": [
                        {
                            "code": "4",
                            "system": "http://miramedix.ru/fhir/CodeSystem/onlinedoc-activity-reason",
                            "display": "Тройной негативный фенотип опухоли"
                        }
                    ]
                },
                {
                    "coding": [
                        {
                            "code": "5",
                            "system": "http://miramedix.ru/fhir/CodeSystem/onlinedoc-activity-reason",
                            "display": "Мужской пол"
                        }
                    ]
                }
            ],
            "definitioncanonical": "ActivityDefinition/173",
            "requiredBehavior": "must-unless-documented",
            "selectionBehavior": "one-or-more",
            "timingTiming": {
                "repeat": {
                    "boundsRange": {
                        "high": {
                            "value": 14,
                            "unit": "d"
                        }
                    }
                }
            },
            "extension": [
                {
                    "url": "http://miramedix.ru/fhir/StructureDefinition/is-survey-required",
                    "valueBoolean": false
                }
            ]
        }
    ]
}