{
    "id": "<id-message-is-read-but-late>",
    "resourceType": "Communication",
    "status": "completed",
    "category": [
        {
            "coding": [
                {
                    "code": "warning",
                    "system": "http://miramedix.ru/fhir/CodeSystem/onlinedoc-message-category"
                }
            ]
        }
    ],
    "partOf": [
        {
            "id": "<id-chat>",
            "resourceType": "Encounter"
        }
    ],
    "sent": "2020-04-15T11:01:30Z",
    "payload": [
        {
            "content": {
                "string": "Добрый день, господин доктор!"
            }
        }
    ],
    "recipient": [
        {
            "id": "38c17ec3-ddd2-4099-a8e6-5d55fae6eb6f",
            "resourceType": "PractitionerRole"
        }
    ],
    "sender": {
        "id": "c2116aef-e658-40d1-acb0-6fc360cf51aa",
        "resourceType": "Patient"
    },
    "extension": [
        {
            "url": "http://miramedix.ru/fhir/StructureDefinition/message-overdue-flag",
            "valueBoolean": true
        }
    ]
}