{
    "resourceType": "DocumentReference",
    "id": "<id-document-of-some-patient-results>",
    "description": "Биохимический анализ крови",
    "status": "current",
    "date": "2020-11-10T13:42:03+03:00",
    "content": [
        {
            "attachment": {
                "url": "82846ece-fe5c-40ea-aa09-3784fabe960c/bf91a45e-6690-4dde-a34a-2e94849e7971_23_12_2019_13_42_18.jpg"
            }
        }
    ],
    "subject": {
        "id": "795e5f1c-176a-49cd-b413-40681c9448a8",
        "resourceType": "Patient"
    }
}