{
    "id": "<id-task-cancelled-due-to-patient-reject>",
    "resourceType": "Task",
    "instantiatesCanonical": {
        "reference": "ActivityDefinition/mgfoms-c50-protocol-standard-v1-activity-1"
    },
    "intent": "order",
    "code": {
        "coding": [
            {
                "code": "objective",
                "system": "http://miramedix.ru/fhir/CodeSystem/task-code",
                "display": "Задача"
            }
        ]
    },
    "description": "Коагулограмма",
    "status": "cancelled",
    "statusReason": {
        "text": "Пациент отказался выполнять данное мероприятие",
        "coding": [
            {
                "code": "patient-rejection",
                "system": "http://miramedix.ru/fhir/CodeSystem/task-statusReason",
                "display": "Отказ пациента"
            }
        ]
    },
    "requester": {
        "reference": "PractitionerRole/defaultPractitionerRole"
    },
    "for": {
        "reference": "Patient/11b6d8d5-dd1f-4a44-ae54-92f3b1b65b90"
    },
    "restriction": {
        "period": {
            "end": "2020-07-28T23:59:59+03:00",
            "start": "2020-07-15T00:00:00+03:00"
        }
    },
    "extension": [
        {
            "url": "http://miramedix.ru/fhir/StructureDefinition/patient-rejection-flag",
            "valueBoolean": true 
        }
    ]
}