{
    "id": "<id-task-patient-approved-only-therefore-uncompleted-yet>",
    "resourceType": "Task",
    "instantiatesCanonical": {
        "reference": "ActivityDefinition/mgfoms-c50-protocol-standard-v1-activity-1"
    },
    "intent": "order",
    "code": {
        "coding": [
            {
                "code": "objective",
                "system": "http://miramedix.ru/fhir/CodeSystem/task-code",
                "display": "Задача"
            }
        ]
    },
    "description": "Коагулограмма",
    "status": "ready",
    "requester": {
        "reference": "PractitionerRole/defaultPractitionerRole"
    },
    "for": {
        "reference": "Patient/11b6d8d5-dd1f-4a44-ae54-92f3b1b65b90"
    },
    "restriction": {
        "period": {
            "end": "2020-07-28T23:59:59+03:00",
            "start": "2020-07-15T00:00:00+03:00"
        }
    },
    "output": [
        {
            "type": {
                "coding": [
                    {
                        "code": "response",
                        "system": "http://miramedix.ru/fhir/CodeSystem/task-outputtype",
                        "display": "Ответ"
                    }
                ]
            },
            "valueReference": {
                "id": "d2e98bbe-cd76-4eab-8ff7-22258932a0b4",
                "reference": "DocumentReference/d2e98bbe-cd76-4eab-8ff7-22258932a0b4"
            }
        }
    ]
}