{
    "id": "onlinedoc-activity",
    "resourceType": "CodeSystem",
    "description": "Мероприятие протокола ведения",
    "content": "complete",
    "name": "OnlineDocActivity",
    "experimental": false,
    "title": "Мероприятие протокола ведения",
    "status": "active",
    "url": "http://miramedix.ru/fhir/CodeSystem/onlinedoc-activity",
    "version": "1.0.0",
    "concept": [
        {
            "code": "1-001",
            "display": "Первичный осмотр акушера-гинеколога при постановке на учет"
        },
        {
            "code": "1-002",
            "display": "Группа крови,  Rh-фактор, фенотип"
        },
        {
            "code": "1-003",
            "display": "RW, ВИЧ, HBS, HCV"
        },
        {
            "code": "1-004",
            "display": "Посев мочи"
        },
        {
            "code": "1-005",
            "display": "Осмотр стоматолога"
        },
        {
            "code": "1-006",
            "display": "Осмотр отоларинголога"
        },
        {
            "code": "1-007",
            "display": "Осмотр офтальмолога, Офтальмоскопия"
        },
        {
            "code": "1-008",
            "display": "ЭКГ в 12 отведениях"
        },
        {
            "code": "1-009",
            "display": "УЗИ  внутренних женских половых органов"
        },
        {
            "code": "1-010",
            "display": "Мазок на флору"
        },
        {
            "code": "1-011",
            "display": "ПЦР хламидии"
        },
        {
            "code": "1-012",
            "display": "Мазок на онкоцитологию"
        },
        {
            "code": "1-013",
            "display": "Анализ крови общий"
        },
        {
            "code": "1-014",
            "display": "Биохимический анализ крови"
        },
        {
            "code": "1-015",
            "display": "Коагулограмма"
        },
        {
            "code": "1-016",
            "display": "Сывороточные маркеры: PAPP-A белок, бета-ХГ"
        },
        {
            "code": "1-017",
            "display": "Анализ мочи общий с микроскопией осадка"
        },
        {
            "code": "1-018",
            "display": "Осмотр гинеколога +АД"
        },
        {
            "code": "1-019",
            "display": "Скрининговое УЗИ плода I триместр"
        },
        {
            "code": "1-020",
            "display": "Школа для беременных"
        },
        {
            "code": "1-021",
            "display": "Консультация генетика"
        },
        {
            "code": "1-022",
            "display": "Сывороточные маркеры: АФП, бета-ХГ"
        },
        {
            "code": "1-023",
            "display": "Коагулограмма"
        },
        {
            "code": "1-024",
            "display": "Ан.крови на гормоны: ТТГ, Т4"
        },
        {
            "code": "1-025",
            "display": "Кровь на свободный эстриол"
        },
        {
            "code": "1-026",
            "display": "Скрининговое УЗИ плода II триместр"
        },
        {
            "code": "1-028",
            "display": "Глюкозотолерантный тест"
        },
        {
            "code": "1-029",
            "display": "Введение иммуноглобулина человека антирезус (RH0 -D) по показаниям"
        },
        {
            "code": "1-030",
            "display": "TORCH-инфекции. Ig G, Ig M"
        },
        {
            "code": "1-031",
            "display": "Кариотип препаратов из ворсин хориона/плаценты по показаниям"
        },
        {
            "code": "1-032",
            "display": "Кариотип лимфоцитов крови по показаниям"
        },
        {
            "code": "1-033",
            "display": "Кариотип клеток аминотической жидкости по показаниям"
        },
        {
            "code": "1-034",
            "display": "Амниоцентез по показаниям"
        },
        {
            "code": "1-035",
            "display": "Биопсия хориона, плаценты (цитогенетическое исследование)  по показаниям"
        },
        {
            "code": "1-036",
            "display": "Аспирация ворсин хориона/плаценты по показаниям"
        },
        {
            "code": "1-037",
            "display": "Кордоцентез по показаниям"
        },
        {
            "code": "1-038",
            "display": "Осмотр терапевта"
        },
        {
            "code": "1-039",
            "display": "Cкрининговое УЗИ плода III триместр с допплерографией кровотока"
        },
        {
            "code": "1-040",
            "display": "КТГ+ нестрессовый тест плода"
        },
        {
            "code": "1-041",
            "display": "Роды"
        },
        {
            "code": "1-042",
            "display": "Регистрация полиса ребенка"
        },
        {
            "code": "1-043",
            "display": "D-димер"
        },
        {
            "code": "1-044",
            "display": "Анализ крови клинический развернутый"
        },
        {
            "code": "1-045",
            "display": "Биохимический анализ крови развернутый"
        },
        {
            "code": "1-046",
            "display": "Анализ мочи общий"
        },
        {
            "code": "1-047",
            "display": "Антитела к вирусу гепатита C (Hepatitis C virus)"
        },
        {
            "code": "1-048",
            "display": "HBsAg вируса гепатита B (Hepatitis B virus)"
        },
        {
            "code": "1-049",
            "display": "Антитела к бледной трепонеме (Treponema pallidum)"
        },
        {
            "code": "1-050",
            "display": "IgM, IgG к вирусу иммунодефицита человека ВИЧ-1 (Human immunodeficiency virus HIV 1)"
        },
        {
            "code": "1-051",
            "display": "IgM, IgG к вирусу иммунодефицита человека ВИЧ-2 (Human immunodeficiency virus HIV 2)"
        },
        {
            "code": "1-052",
            "display": "Группа крови, Rh-фактор, КЕЛЛ фактор, фенотип"
        },
        {
            "code": "1-053",
            "display": "УЗИ органов брюшной полости, забрюшинного пространства и малого таза"
        },
        {
            "code": "1-054",
            "display": "Рентгенография грудной клетки в двух проекциях/ КТ органов грудной клетки для исключения отдаленного метастазирования"
        },
        {
            "code": "1-055",
            "display": "Генетическое тестирование"
        },
        {
            "code": "1-056",
            "display": "МРТ молочных желез"
        },
        {
            "code": "1-057",
            "display": "КТ органов брюшной полости с внутривенным контрастированием"
        },
        {
            "code": "1-058",
            "display": "МРТ органов брюшной полости с внутривенным контрастированием"
        },
        {
            "code": "1-059",
            "display": "Биопсия очагов в органах и тканях под контролем УЗИ"
        },
        {
            "code": "1-060",
            "display": "Биопсия очагов в органах и тканях под контролем КТ "
        },
        {
            "code": "1-061",
            "display": "ПЭТ-КТ"
        },
        {
            "code": "1-062",
            "display": "Остеосцинтиграфия"
        },
        {
            "code": "1-063",
            "display": "МРТ головного мозга с внутривенным контрастированием"
        },
        {
            "code": "1-064",
            "display": "КТ головного мозга с внутривенным контрастированием"
        },
        {
            "code": "1-065",
            "display": "Эхо-КГ"
        },
        {
            "code": "1-066",
            "display": "Холтер"
        },
        {
            "code": "1-067",
            "display": "ФВД"
        },
        {
            "code": "1-068",
            "display": "УЗДГ сосудов шеи и нижних конечностей"
        },
        {
            "code": "1-069",
            "display": "Консультация кардиолога"
        },
        {
            "code": "1-070",
            "display": "Консультация эндокринолога"
        },
        {
            "code": "1-071",
            "display": "Консультация невропатолога"
        },
        {
            "code": "1-072",
            "display": "Консультация врача-специалиста"
        }
    ]
}