{
    "resourceType": "Flag",
    "id": "<id-flag-physician-is-on-sick-leave>",
    "status": "active",
    "code": {
        "coding": [
            {
                "system": "http://miramedix.ru/fhir/CodeSystem/doctor-non-availability-reason",
                "code": "sick-leave",
                "display": "Больничный"
            }
        ]
    },
    "subject": {
        "reference": "PractitionerRole/f0adfa64-1ca5-4d76-88a9-49ab5c8d9f1b"
    },
    "period": {
        "start": "2020-10-17",
        "end": "2020-12-01"
    },
    "author": {
        "reference": "PractitionerRole/f0adfa64-1ca5-4d76-88a9-49ab5c8d9f1c"
    }
}