{
    "description": "Author of this AppRole",
    "path": [
        "author"
    ],
    "isModifier": false,
    "isRequired": false,
    "refers": [
        "User",
        "PractitionerRole"
    ],
    "type": {
        "id": "Reference",
        "resourceType": "Entity"
    },
    "resourceType": "Attribute",
    "module": "fhir-4.0.0",
    "id": "AppRole.author",
    "resource": {
        "id": "AppRole",
        "resourceType": "Entity"
    },
    "isSummary": false
}