{
    "id": "<id-position-profile-administrator>",
    "resourceType": "PractitionerRole",
    "active": true,
    "telecom": [
        {
            "system": "email",
            "value": "organization-admin@example.com",
            "use": "work"
        }
    ],
    "code": [
        {
            "coding": [
                {
                    "code": "336",
                    "system": "https://nsi.rosminzdrav.ru/#!/refbook/1.2.643.5.1.13.13.11.1002",
                    "display": "заместитель руководителя медицинской организации"
                }
            ]
        }
    ],
    "organization": {
        "reference": "Organization/d08ffe9c-6eb9-4b58-923a-1c4ff42aeda6"
    },
    "practitioner": {
        "reference": "Practitioner/96cc02d4-a779-4e94-8fb5-de17e62f5d77"
    },
    "extension": [
        {
            "url": "http://miramedix.ru/fhir/StructureDefinition/app-role-reference",
            "valueReference": {
                "reference": "AppRole/eec8805a-757d-48d8-83d2-bfd8564a4291"
            }
        },
        {
            "url": "http://miramedix.ru/fhir/StructureDefinition/onlinedoc-manager-status",
            "valueCoding": {
                "code": "active",
                "system": "http://miramedix.ru/fhir/ValueSet/onlinedoc-manager-status",
                "display": "Активен"
            }
        }
    ]
}