{
    "id": "<id-registrator-personal-info>",
    "resourceType": "Practitioner",
    "active": true,
    "name": [
        {
            "text": "Пробка Георгий Разович",
            "given": [
                "Георгий",
                "Разович"
            ],
            "family": "Пробка"
        }
    ]
}