{
    "id": "<id-answer-timing-rule-organization-layer>",
    "resourceType": "AnswerTimingRule",
    "derivedFrom": {
        "reference": "AnswerTimingRule/<id-root>"
    },
    "applicableTo": {
        "reference": "Organization/<organization-id>"
    },
    "rule":{
        "timeoutMinutes": 240
    },
    "exceptNonWorkingTime": "true",
    "exceptNonWorkingDates": "true"
}